Importing CIMIS Station Data with the Synoptic API
…
Compare all rows:

cam_syncimis_comb_tbl

# A tibble: 169 × 11
   dt                  date       air_temp_syn air_temp_cim soil_temp_syn
   <dttm>              <date>            <dbl>        <dbl>         <dbl>
 1 2023-12-01 00:00:00 2023-12-01         48.7         NA            51.8
 2 2023-12-01 01:00:00 2023-12-01         48           48            51.2
 3 2023-12-01 02:00:00 2023-12-01         47.2         47.2          50.6
 4 2023-12-01 03:00:00 2023-12-01         45           45            49.9
 5 2023-12-01 04:00:00 2023-12-01         44.4         44.4          49.3
 6 2023-12-01 05:00:00 2023-12-01         43.1         43.1          48.8
 7 2023-12-01 06:00:00 2023-12-01         43.6         43.6          48.2
 8 2023-12-01 07:00:00 2023-12-01         43.8         43.8          47.7
 9 2023-12-01 08:00:00 2023-12-01         46.6         46.6          47.3
10 2023-12-01 09:00:00 2023-12-01         51.7         51.7          47.2
# ℹ 159 more rows
# ℹ 6 more variables: soil_temp_cim <dbl>, precip_syn <dbl>, precip_cim <dbl>,
#   et_syn <dbl>, et_cim <dbl>, HlyAsceEto <dbl>
…
